[gd_scene load_steps=3 format=2]

[ext_resource path="res://Board/Pieces/Deer.png" type="Texture" id=1]
[ext_resource path="res://Board/Pieces/Deer.gd" type="Script" id=2]

[node name="Deer" type="Node2D" groups=[
"Board Piece",
]]
script = ExtResource( 2 )

[node name="Sprite" type="Sprite" parent="."]
z_index = 1
texture = ExtResource( 1 )
__meta__ = {
"_edit_lock_": true
}
